inwoners,2018
De Wierden,0
Bruilweering,40
Vogelbuurt,2315
Florabuurt,1185
Damsterbuurt,810
Zuidoost,2375
De Linie,860
Europapark,450
Eemskanaal,65
Kop van Oost,665
Woonschepenhaven,140
Driebond,25
Eemspoort,25
Euvelgunne,45
Winschoterdiep,50
Stainkoel'n,0
Roodehaan,25
Waterhuizen,5
Helpman e.o.,19190
Sterrebosbuurt,385
Coendersborg,3085
Klein Martijn,650
Villabuurt,925
Helpman,6140
De Wijert,4815
De Wijert-Zuid,3185
Zuidwest,10940
Corpus den Hoorn,4520
Hoornse Meer,4420
Hoornse Park,720
Van Swieten,15
Gorechtbuurt,4920
Oosterparkwijk,12120
Professorenbuurt,6155
Herewegbuurt,1630
Groningen,202810
Centrum,22550
Binnenstad-Noord,4410
Binnenstad-Zuid,6615
Binnenstad-Oost,4015
Binnenstad-West,1710
Noorderplantsoen,10
Hortusbuurt-Ebbingekwartier,5440
UMCG,0
Stationsgebied,345
Oud-Zuid,20245
De Meeuwen,1415
Oosterpoort,5190
Rivierenbuurt,4540
Indische buurt,8440
Grunobuurt,2140
Badstratenbuurt,875
Zeeheldenbuurt,3175
Laanhuizen,1240
Stadspark,25
Martini Trade Park,0
Oud-West,14675
Oranjebuurt,2800
Noorderplantsoenbuurt,3860
Schildersbuurt,5770
Kostverloren,2245
Oud-Noord,18620
De Hoogte,4025
Piccardthof,1220
Bloemenbuurt,2885
Hoogkerk e.o.,12150
Beijum-Oost,6345
Van Starkenborgh,950
Noorderhoogebrug,285
Het Witte Lam,35
Koningslaagte,75
Hunzeboord,5
Noorddijk e.o.,16445
Lewenborg-Noord,3650
Lewenborg-Zuid,3495
Lewenborg-West,1845
Oosterhoogebrug,2230
Ulgersmaborg,2075
Hunzepark,0
Zilvermeer,220
Kardinge,0
Drielanden,970
Noorddijk,100
Ruischerbrug,480
Ruischerwaard,1365
Meerdorpen,1060
Middelbert,105
Engelbert,890
Klein Harkstede,60
Meerstad e.o.,1170
Meeroevers,815
Harkstede GN,220
Lageland GN,105
Groenewei,0
Hoogkerk Dorp,1865
De Zeilen,0
De Hunze,2495
Tersluis,25
Beijum-West,6135
Vinkhuizen-Zuid,4860
Noordoost,16325
Westpoort,10
Vierverlaten,135
Zuidwending,45
Leegkerk,75
Gravenburg,2300
Suikerfabriekterrein,5
Peizerweg,25
Bangeweer,275
De Buitenhof,1605
Kranenburg,0
De Kring,330
Nieuw-West,16620
Vinkhuizen-Noord,6120
Hoogkerk-Zuid,5475
Hoendiep,130
Selwerd,6230
Friesestraatweg,40
Tuinwijk,1560
Selwerderhof,5
Zernike Campus,10
Paddepoel-Zuid,4615
Paddepoel-Noord,5895
Noordwest,18320
Westpark,30
De Held,2670
Dorkwerd,80
Reitdiep,2680
Ebbingekwartier,
Korrewegbuurt,
Koningslaagte,
Universiteitscomplex,
Paddepoel-Noord,
Noorderhoogebrug,
De Wijert-Zuid,
Ruischerbrug,
Woonwagenkamp,
Villabuurt-West,
Woonwagenkamp,
